\select@language {brazilian}
\select@language {english}
\select@language {brazilian}
\contentsline {chapter}{1~Introdu\IeC {\c c}\IeC {\~a}o}{9}{CHAPTER.1}
\contentsline {section}{\numberline {1.1}Figuras e tabelas}{9}{section.1.1}
\contentsline {subsection}{\numberline {1.1.1}Formato de Figuras}{10}{subsection.1.1.1}
\contentsline {subsection}{\numberline {1.1.2}Classifica\IeC {\c c}\IeC {\~a}o dos etc.}{10}{subsection.1.1.2}
\contentsline {subsubsection}{\numberline {1.1.2.1}Subsubse\IeC {\c c}\IeC {\~a}o}{10}{subsubsection.1.1.2.1}
\contentsline {paragraph}{\numberline {1.1.2.1.1}Par\IeC {\'a}grafo}{11}{paragraph.1.1.2.1.1}
\contentsline {section}{\numberline {1.2}Sobre as refer\IeC {\^e}ncias bibliogr\IeC {\'a}ficas}{11}{section.1.2}
\contentsline {section}{\numberline {1.3}Mais uma Se\IeC {\c c}\IeC {\~a}o}{11}{section.1.3}
\contentsline {section}{\numberline {1.4}Mais uma Se\IeC {\c c}\IeC {\~a}o}{12}{section.1.4}
\contentsline {section}{\numberline {1.5}Mais uma Se\IeC {\c c}\IeC {\~a}o}{12}{section.1.5}
\contentsline {section}{\numberline {1.6}Mais uma Se\IeC {\c c}\IeC {\~a}o}{12}{section.1.6}
\contentsline {section}{\numberline {1.7}Mais uma Se\IeC {\c c}\IeC {\~a}o}{12}{section.1.7}
\contentsline {section}{\numberline {1.8}Mais uma Se\IeC {\c c}\IeC {\~a}o}{12}{section.1.8}
\contentsline {section}{\numberline {1.9}Mais uma Se\IeC {\c c}\IeC {\~a}o}{12}{section.1.9}
\contentsline {section}{\numberline {1.10}Mais uma Se\IeC {\c c}\IeC {\~a}o}{12}{section.1.10}
\contentsline {section}{\numberline {1.11}Mais uma Se\IeC {\c c}\IeC {\~a}o}{12}{section.1.11}
\contentsline {section}{\numberline {1.12}Mais uma Se\IeC {\c c}\IeC {\~a}o}{12}{section.1.12}
