\relax 
\providecommand\hyper@newdestlabel[2]{}
\catcode `"\active 
\providecommand\HyperFirstAtBeginDocument{\AtBeginDocument}
\HyperFirstAtBeginDocument{\ifx\hyper@anchor\@undefined
\global\let\oldcontentsline\contentsline
\gdef\contentsline#1#2#3#4{\oldcontentsline{#1}{#2}{#3}}
\global\let\oldnewlabel\newlabel
\gdef\newlabel#1#2{\newlabelxx{#1}#2}
\gdef\newlabelxx#1#2#3#4#5#6{\oldnewlabel{#1}{{#2}{#3}}}
\AtEndDocument{\ifx\hyper@anchor\@undefined
\let\contentsline\oldcontentsline
\let\newlabel\oldnewlabel
\fi}
\fi}
\global\let\hyper@last\relax 
\gdef\HyperFirstAtBeginDocument#1{#1}
\providecommand\HyField@AuxAddToFields[1]{}
\providecommand\HyField@AuxAddToCoFields[2]{}
\citation{abnt-url-package=url}
\citation{abnt-emphasize=bf}
\select@language{brazilian}
\@writefile{toc}{\select@language{brazilian}}
\@writefile{lof}{\select@language{brazilian}}
\@writefile{lot}{\select@language{brazilian}}
\@writefile{lof}{\addvspace {10\p@ }}
\@writefile{lot}{\addvspace {10\p@ }}
\select@language{english}
\@writefile{toc}{\select@language{english}}
\@writefile{lof}{\select@language{english}}
\@writefile{lot}{\select@language{english}}
\@writefile{lof}{\addvspace {10\p@ }}
\@writefile{lot}{\addvspace {10\p@ }}
\select@language{brazilian}
\@writefile{toc}{\select@language{brazilian}}
\@writefile{lof}{\select@language{brazilian}}
\@writefile{lot}{\select@language{brazilian}}
\@writefile{lof}{\addvspace {10\p@ }}
\@writefile{lot}{\addvspace {10\p@ }}
\@writefile{lof}{\addvspace {10\p@ }}
\@writefile{lot}{\addvspace {10\p@ }}
\@writefile{lof}{\addvspace {10\p@ }}
\@writefile{lot}{\addvspace {10\p@ }}
\@writefile{lof}{\addvspace {10\p@ }}
\@writefile{lot}{\addvspace {10\p@ }}
\@writefile{toc}{\contentsline {chapter}{1~Introdu\IeC {\c c}\IeC {\~a}o}{9}{CHAPTER.1}}
\@writefile{lof}{\addvspace {10\p@ }}
\@writefile{lot}{\addvspace {10\p@ }}
\@writefile{lol}{\addvspace {10\p@ }}
\@writefile{toc}{\contentsline {section}{\numberline {1.1}Figuras e tabelas}{9}{section.1.1}}
\@writefile{lof}{\contentsline {figure}{\numberline {1.1}{\ignorespaces Descri\IeC {\c c}\IeC {\~a}o da Figura deve ir no topo}}{9}{figure.1.1}}
\newlabel{fig:estrutura}{{1.1}{9}{Figuras e tabelas}{figure.1.1}{}}
\@writefile{lof}{\contentsline {figure}{\numberline {1.2}{\ignorespaces Exemplo de figura importada de um arquivo e tamb\IeC {\'e}m exemplo de caption muito grande que ocupa mais de uma linha na Lista~de~Figuras}}{9}{figure.1.2}}
\newlabel{fig:ex1}{{1.2}{9}{Figuras e tabelas}{figure.1.2}{}}
\@writefile{lof}{\contentsline {figure}{\numberline {1.3}{\ignorespaces Exemplo de figura desenhada com o environment \texttt  {picture}.}}{10}{figure.1.3}}
\newlabel{fig:ex2}{{1.3}{10}{Figuras e tabelas}{figure.1.3}{}}
\@writefile{lot}{\contentsline {table}{\numberline {1.1}{\ignorespaces Uma tabela de Exemplo}}{10}{table.1.1}}
\newlabel{tbl:ex1}{{1.1}{10}{Figuras e tabelas}{table.1.1}{}}
\@writefile{toc}{\contentsline {subsection}{\numberline {1.1.1}Formato de Figuras}{10}{subsection.1.1.1}}
\newlabel{sec:fig_format}{{1.1.1}{10}{Formato de Figuras}{subsection.1.1.1}{}}
\@writefile{toc}{\contentsline {subsection}{\numberline {1.1.2}Classifica\IeC {\c c}\IeC {\~a}o dos etc.}{10}{subsection.1.1.2}}
\@writefile{toc}{\contentsline {subsubsection}{\numberline {1.1.2.1}Subsubse\IeC {\c c}\IeC {\~a}o}{10}{subsubsection.1.1.2.1}}
\citation{Adams2009Conceptual}
\citation{Adams2009Conceptual}
\citation{Adams2009Conceptual}
\citation{Adams2009Conceptual}
\citation{Adams2009Conceptual}
\citation{Adams2009Conceptual}
\bibstyle{abntex2-alf}
\bibdata{abntex2-options,biblio}
\@writefile{toc}{\contentsline {paragraph}{\numberline {1.1.2.1.1}Par\IeC {\'a}grafo}{11}{paragraph.1.1.2.1.1}}
\@writefile{toc}{\contentsline {section}{\numberline {1.2}Sobre as refer\IeC {\^e}ncias bibliogr\IeC {\'a}ficas}{11}{section.1.2}}
\@writefile{toc}{\contentsline {section}{\numberline {1.3}Mais uma Se\IeC {\c c}\IeC {\~a}o}{11}{section.1.3}}
\@writefile{toc}{\contentsline {section}{\numberline {1.4}Mais uma Se\IeC {\c c}\IeC {\~a}o}{12}{section.1.4}}
\@writefile{toc}{\contentsline {section}{\numberline {1.5}Mais uma Se\IeC {\c c}\IeC {\~a}o}{12}{section.1.5}}
\@writefile{toc}{\contentsline {section}{\numberline {1.6}Mais uma Se\IeC {\c c}\IeC {\~a}o}{12}{section.1.6}}
\@writefile{toc}{\contentsline {section}{\numberline {1.7}Mais uma Se\IeC {\c c}\IeC {\~a}o}{12}{section.1.7}}
\@writefile{toc}{\contentsline {section}{\numberline {1.8}Mais uma Se\IeC {\c c}\IeC {\~a}o}{12}{section.1.8}}
\@writefile{toc}{\contentsline {section}{\numberline {1.9}Mais uma Se\IeC {\c c}\IeC {\~a}o}{12}{section.1.9}}
\@writefile{toc}{\contentsline {section}{\numberline {1.10}Mais uma Se\IeC {\c c}\IeC {\~a}o}{12}{section.1.10}}
\@writefile{toc}{\contentsline {section}{\numberline {1.11}Mais uma Se\IeC {\c c}\IeC {\~a}o}{12}{section.1.11}}
\@writefile{toc}{\contentsline {section}{\numberline {1.12}Mais uma Se\IeC {\c c}\IeC {\~a}o}{12}{section.1.12}}
\newlabel{LastPage}{{}{12}{}{page.12}{}}
\xdef\lastpage@lastpage{12}
\xdef\lastpage@lastpageHy{12}
