\relax 
\providecommand\hyper@newdestlabel[2]{}
\catcode `"\active 
\providecommand\HyperFirstAtBeginDocument{\AtBeginDocument}
\HyperFirstAtBeginDocument{\ifx\hyper@anchor\@undefined
\global\let\oldcontentsline\contentsline
\gdef\contentsline#1#2#3#4{\oldcontentsline{#1}{#2}{#3}}
\global\let\oldnewlabel\newlabel
\gdef\newlabel#1#2{\newlabelxx{#1}#2}
\gdef\newlabelxx#1#2#3#4#5#6{\oldnewlabel{#1}{{#2}{#3}}}
\AtEndDocument{\ifx\hyper@anchor\@undefined
\let\contentsline\oldcontentsline
\let\newlabel\oldnewlabel
\fi}
\fi}
\global\let\hyper@last\relax 
\gdef\HyperFirstAtBeginDocument#1{#1}
\providecommand\HyField@AuxAddToFields[1]{}
\providecommand\HyField@AuxAddToCoFields[2]{}
\citation{abnt-url-package=url}
\citation{abnt-emphasize=bf}
\select@language{brazilian}
\@writefile{toc}{\select@language{brazilian}}
\@writefile{lof}{\select@language{brazilian}}
\@writefile{lot}{\select@language{brazilian}}
\@writefile{lof}{\addvspace {10\p@ }}
\@writefile{lot}{\addvspace {10\p@ }}
\@writefile{lof}{\addvspace {10\p@ }}
\@writefile{lot}{\addvspace {10\p@ }}
\select@language{english}
\@writefile{toc}{\select@language{english}}
\@writefile{lof}{\select@language{english}}
\@writefile{lot}{\select@language{english}}
\@writefile{lof}{\addvspace {10\p@ }}
\@writefile{lot}{\addvspace {10\p@ }}
\select@language{brazilian}
\@writefile{toc}{\select@language{brazilian}}
\@writefile{lof}{\select@language{brazilian}}
\@writefile{lot}{\select@language{brazilian}}
\@writefile{lof}{\addvspace {10\p@ }}
\@writefile{lot}{\addvspace {10\p@ }}
\@writefile{lof}{\addvspace {10\p@ }}
\@writefile{lot}{\addvspace {10\p@ }}
\@writefile{lof}{\addvspace {10\p@ }}
\@writefile{lot}{\addvspace {10\p@ }}
\@writefile{lof}{\addvspace {10\p@ }}
\@writefile{lot}{\addvspace {10\p@ }}
\@writefile{toc}{\contentsline {chapter}{1~Introdu\IeC {\c c}\IeC {\~a}o}{11}{CHAPTER.1}}
\@writefile{lof}{\addvspace {10\p@ }}
\@writefile{lot}{\addvspace {10\p@ }}
\@writefile{lol}{\addvspace {10\p@ }}
\@writefile{toc}{\contentsline {section}{\numberline {1.1}Figuras e tabelas}{11}{section.1.1}}
\@writefile{lof}{\contentsline {figure}{\numberline {1.1}{\ignorespaces Descri\IeC {\c c}\IeC {\~a}o da Figura deve ir no topo}}{11}{figure.1.1}}
\newlabel{fig:estrutura}{{1.1}{11}{Figuras e tabelas}{figure.1.1}{}}
\@writefile{lof}{\contentsline {figure}{\numberline {1.2}{\ignorespaces Exemplo de figura importada de um arquivo e tamb\IeC {\'e}m exemplo de caption muito grande que ocupa mais de uma linha na Lista~de~Figuras}}{11}{figure.1.2}}
\newlabel{fig:ex1}{{1.2}{11}{Figuras e tabelas}{figure.1.2}{}}
\@writefile{lof}{\contentsline {figure}{\numberline {1.3}{\ignorespaces Exemplo de figura desenhada com o environment \texttt  {picture}.}}{12}{figure.1.3}}
\newlabel{fig:ex2}{{1.3}{12}{Figuras e tabelas}{figure.1.3}{}}
\@writefile{lot}{\contentsline {table}{\numberline {1.1}{\ignorespaces Uma tabela de Exemplo}}{12}{table.1.1}}
\newlabel{tbl:ex1}{{1.1}{12}{Figuras e tabelas}{table.1.1}{}}
\@writefile{toc}{\contentsline {subsection}{\numberline {1.1.1}Formato de Figuras}{12}{subsection.1.1.1}}
\newlabel{sec:fig_format}{{1.1.1}{12}{Formato de Figuras}{subsection.1.1.1}{}}
\@writefile{toc}{\contentsline {subsection}{\numberline {1.1.2}Classifica\IeC {\c c}\IeC {\~a}o dos etc.}{12}{subsection.1.1.2}}
\citation{Adams2009Conceptual}
\citation{Adams2009Conceptual}
\citation{Adams2009Conceptual}
\citation{Adams2009Conceptual}
\citation{Adams2009Conceptual}
\citation{Adams2009Conceptual}
\bibstyle{abntex2-alf}
\bibdata{abntex2-options,biblio}
\@writefile{toc}{\contentsline {section}{\numberline {1.2}Sobre as refer\IeC {\^e}ncias bibliogr\IeC {\'a}ficas}{13}{section.1.2}}
\newlabel{LastPage}{{}{13}{}{page.13}{}}
\xdef\lastpage@lastpage{13}
\xdef\lastpage@lastpageHy{13}
