This is BibTeX, Version 0.99d (TeX Live 2015)
Capacity: max_strings=35307, hash_size=35307, hash_prime=30011
The top-level auxiliary file: main.aux
The style file: abntex2-alf.bst
Reallocated singl_function (elt_size=4) to 100 items from 50.
Reallocated singl_function (elt_size=4) to 100 items from 50.
Reallocated singl_function (elt_size=4) to 100 items from 50.
Reallocated singl_function (elt_size=4) to 100 items from 50.
Reallocated wiz_functions (elt_size=4) to 6000 items from 3000.
Reallocated singl_function (elt_size=4) to 100 items from 50.
Reallocated singl_function (elt_size=4) to 100 items from 50.
Reallocated singl_function (elt_size=4) to 100 items from 50.
Reallocated wiz_functions (elt_size=4) to 9000 items from 6000.
Database file #1: abntex2-options.bib
Database file #2: biblio.bib
Reallocated singl_function (elt_size=4) to 100 items from 50.
Reallocated glb_str_ptr (elt_size=4) to 20 items from 10.
Reallocated global_strs (elt_size=20001) to 20 items from 10.
Reallocated glb_str_end (elt_size=4) to 20 items from 10.
+---------------------------------------------------------+
| Estilo bibliográfico abntex2-alf.bst versão v-1.9.1           |
| Em caso de dúvidas ou problemas com este estilo procure |
| http://abntex2.googlecode.com                           |
+---------------------------------------------------------+
You've used 2 entries,
            6711 wiz_defined-function locations,
            1197 strings with 9307 characters,
and the built_in function-call counts, 1113 in all, are:
= -- 205
> -- 0
< -- 0
+ -- 47
- -- 0
* -- 45
:= -- 195
add.period$ -- 0
call.type$ -- 2
change.case$ -- 6
chr.to.int$ -- 1
cite$ -- 0
duplicate$ -- 6
empty$ -- 79
format.name$ -- 0
if$ -- 272
int.to.chr$ -- 1
int.to.str$ -- 0
missing$ -- 20
newline$ -- 8
num.names$ -- 0
pop$ -- 30
preamble$ -- 1
purify$ -- 6
quote$ -- 0
skip$ -- 124
stack$ -- 1
substring$ -- 54
swap$ -- 0
text.length$ -- 0
text.prefix$ -- 0
top$ -- 0
type$ -- 0
warning$ -- 0
while$ -- 2
width$ -- 0
write$ -- 8
