\relax 
\providecommand\hyper@newdestlabel[2]{}
\catcode `"\active 
\providecommand\HyperFirstAtBeginDocument{\AtBeginDocument}
\HyperFirstAtBeginDocument{\ifx\hyper@anchor\@undefined
\global\let\oldcontentsline\contentsline
\gdef\contentsline#1#2#3#4{\oldcontentsline{#1}{#2}{#3}}
\global\let\oldnewlabel\newlabel
\gdef\newlabel#1#2{\newlabelxx{#1}#2}
\gdef\newlabelxx#1#2#3#4#5#6{\oldnewlabel{#1}{{#2}{#3}}}
\AtEndDocument{\ifx\hyper@anchor\@undefined
\let\contentsline\oldcontentsline
\let\newlabel\oldnewlabel
\fi}
\fi}
\global\let\hyper@last\relax 
\gdef\HyperFirstAtBeginDocument#1{#1}
\providecommand\HyField@AuxAddToFields[1]{}
\providecommand\HyField@AuxAddToCoFields[2]{}
\citation{abnt-url-package=url}
\citation{abnt-emphasize=bf}
\select@language{english}
\@writefile{toc}{\select@language{english}}
\@writefile{lof}{\select@language{english}}
\@writefile{lot}{\select@language{english}}
\select@language{brazilian}
\@writefile{toc}{\select@language{brazilian}}
\@writefile{lof}{\select@language{brazilian}}
\@writefile{lot}{\select@language{brazilian}}
\select@language{english}
\@writefile{toc}{\select@language{english}}
\@writefile{lof}{\select@language{english}}
\@writefile{lot}{\select@language{english}}
\@writefile{lof}{\addvspace {10\p@ }}
\@writefile{lot}{\addvspace {10\p@ }}
\@writefile{lof}{\addvspace {10\p@ }}
\@writefile{lot}{\addvspace {10\p@ }}
\tocstyle@set@width {unum}{lof}{}{21.0pt}
\tocstyle@set@width {num}{lof}{1}{21.0pt}
\tocstyle@set@width {skip}{lof}{1}{18.0pt}
\@writefile{lof}{\addvspace {10\p@ }}
\@writefile{lot}{\addvspace {10\p@ }}
\tocstyle@set@width {unum}{lot}{}{21.0pt}
\tocstyle@set@width {num}{lot}{1}{21.0pt}
\tocstyle@set@width {skip}{lot}{1}{18.0pt}
\@writefile{lof}{\addvspace {10\p@ }}
\@writefile{lot}{\addvspace {10\p@ }}
\tocstyle@set@width {unum}{toc}{}{30.0pt}
\tocstyle@set@width {skip}{toc}{0}{0.0pt}
\tocstyle@set@width {num}{toc}{1}{21.0pt}
\tocstyle@set@width {skip}{toc}{1}{18.0pt}
\tocstyle@set@width {num}{toc}{2}{30.0pt}
\tocstyle@set@width {skip}{toc}{2}{39.0pt}
\@writefile{toc}{\contentsline {chapter}{1~Intel AES-NI for brute force attack}{8}{CHAPTER.1}}
\@writefile{lof}{\addvspace {10\p@ }}
\@writefile{lot}{\addvspace {10\p@ }}
\@writefile{lol}{\addvspace {10\p@ }}
\@writefile{toc}{\contentsline {section}{\numberline {1.1}Introduction}{8}{section.1.1}}
\@writefile{toc}{\contentsline {section}{\numberline {1.2}Results}{8}{section.1.2}}
\@writefile{toc}{\contentsline {subsection}{\numberline {1.2.1}Performance using the Intel AES-NI}{8}{subsection.1.2.1}}
\@writefile{lot}{\contentsline {table}{\numberline {1.1}{\ignorespaces Execution time using AES-NI and without using it}}{8}{table.1.1}}
\newlabel{tbl:executionTime}{{1.1}{8}{Performance using the Intel AES-NI}{table.1.1}{}}
\@writefile{toc}{\contentsline {subsection}{\numberline {1.2.2}Distributed brute force attack using AES-NI}{9}{subsection.1.2.2}}
\@writefile{lof}{\contentsline {figure}{\numberline {1.1}{\ignorespaces Execution time to brute force different size of key with different number of processor}}{9}{figure.1.1}}
\newlabel{fig:distExecAES}{{1.1}{9}{Distributed brute force attack using AES-NI}{figure.1.1}{}}
\@writefile{lot}{\contentsline {table}{\numberline {1.2}{\ignorespaces Time's factor between an attack against a key of size 4 and 5}}{10}{table.1.2}}
\newlabel{tbl:factorTime}{{1.2}{10}{Distributed brute force attack using AES-NI}{table.1.2}{}}
\newlabel{tbl:bruteTime}{{1.1}{10}{Distributed brute force attack using AES-NI}{equation.1.2.1}{}}
\@writefile{toc}{\contentsline {section}{\numberline {1.3}Conclusion}{10}{section.1.3}}
\@writefile{toc}{\contentsline {chapter}{2~Distributed dictionary attack}{11}{CHAPTER.2}}
\@writefile{lof}{\addvspace {10\p@ }}
\@writefile{lot}{\addvspace {10\p@ }}
\@writefile{lol}{\addvspace {10\p@ }}
\@writefile{toc}{\contentsline {section}{\numberline {2.1}Introduction}{11}{section.2.1}}
\@writefile{toc}{\contentsline {section}{\numberline {2.2}The shadow file}{11}{section.2.2}}
\@writefile{toc}{\contentsline {section}{\numberline {2.3}The program - Shadow Lecter}{12}{section.2.3}}
\@writefile{lof}{\contentsline {figure}{\numberline {2.1}{\ignorespaces Shadow Lecter - Diagram of the algorithm}}{13}{figure.2.1}}
\newlabel{fig:algoSL}{{2.1}{13}{The program - Shadow Lecter}{figure.2.1}{}}
\@writefile{toc}{\contentsline {subsection}{\numberline {2.3.1}The parser}{14}{subsection.2.3.1}}
\@writefile{toc}{\contentsline {subsection}{\numberline {2.3.2}The dictionaries}{14}{subsection.2.3.2}}
\@writefile{toc}{\contentsline {subsection}{\numberline {2.3.3}The attack}{14}{subsection.2.3.3}}
\@writefile{toc}{\contentsline {section}{\numberline {2.4}Results}{15}{section.2.4}}
\@writefile{lof}{\contentsline {figure}{\numberline {2.2}{\ignorespaces Execution time to test 20 000 words}}{15}{figure.2.2}}
\newlabel{fig:dicoExec}{{2.2}{15}{Results}{figure.2.2}{}}
\@writefile{lof}{\contentsline {figure}{\numberline {2.3}{\ignorespaces Transition time between a find answer and the start of a new search}}{16}{figure.2.3}}
\newlabel{fig:transExec}{{2.3}{16}{Results}{figure.2.3}{}}
\@writefile{lof}{\contentsline {figure}{\numberline {2.4}{\ignorespaces Execution time to test 5 users with 2 dictionaries of 20 000 words each}}{17}{figure.2.4}}
\newlabel{fig:totExec}{{2.4}{17}{Results}{figure.2.4}{}}
\@writefile{toc}{\contentsline {section}{\numberline {2.5}Improvements}{17}{section.2.5}}
\@writefile{toc}{\contentsline {subsection}{\numberline {2.5.1}Save file}{17}{subsection.2.5.1}}
\@writefile{toc}{\contentsline {subsection}{\numberline {2.5.2}Buffer}{18}{subsection.2.5.2}}
\@writefile{toc}{\contentsline {subsection}{\numberline {2.5.3}Rule-based Attack}{18}{subsection.2.5.3}}
\@writefile{lot}{\contentsline {table}{\numberline {2.1}{\ignorespaces Example of functions for rule based attack}}{18}{table.2.1}}
\newlabel{tbl:ruleFunction}{{2.5.3}{18}{Rule-based Attack}{table.2.1}{}}
\@writefile{lof}{\contentsline {figure}{\numberline {2.5}{\ignorespaces Process for rule based attack}}{19}{figure.2.5}}
\newlabel{fig:rulesEngine}{{2.5}{19}{Rule-based Attack}{figure.2.5}{}}
\@writefile{toc}{\contentsline {subsection}{\numberline {2.5.4}OpenMP}{19}{subsection.2.5.4}}
\@writefile{toc}{\contentsline {section}{\numberline {2.6}Conclusion}{19}{section.2.6}}
\newlabel{LastPage}{{}{19}{}{page.19}{}}
\xdef\lastpage@lastpage{19}
\xdef\lastpage@lastpageHy{19}
\bibstyle{abntex2-alf}
