[33m[INFO] Check dico ./dico/dico_4.txt = 3.1361s.
[0m[33m[INFO] Find user = 0.9049s.
[0m[33m[INFO] User transition = 0.0074s.
[0m[33m[INFO] Check user ludovic = 4.0485s.
[0m[33m[INFO] Find user = 1.6764s.
[0m[33m[INFO] User transition = 0.0081s.
[0m[33m[INFO] Check user ludo = 1.6845s.
[0m[33m[INFO] Check dico ./dico/dico_4.txt = 3.1192s.
[0m[33m[INFO] Find user = 1.6316s.
[0m[33m[INFO] User transition = 0.0079s.
[0m[33m[INFO] Check user mario = 4.7587s.
[0m[33m[INFO] Check dico ./dico/dico_4.txt = 3.1186s.
[0m[33m[INFO] Check dico ./dico/dico_3.txt = 3.1186s.
[0m[33m[INFO] Check user fabien = 6.2372s.
[0m[33m[INFO] Find user = 0.0865s.
[0m[33m[INFO] User transition = 0.0049s.
[0m[33m[INFO] Check user marc = 0.0915s.
[0m[32m[OK] All users checked in 16.8205s.
[0m