[33m[INFO] Check dico ./dico/dico_4.txt = 7.3001s.
[0m[33m[INFO] Find user = 0.9083s.
[0m[33m[INFO] User transition = 0.0077s.
[0m[33m[INFO] Check user ludovic = 8.2161s.
[0m[33m[INFO] Find user = 7.2619s.
[0m[33m[INFO] User transition = 0.0081s.
[0m[33m[INFO] Check user ludo = 7.2700s.
[0m[33m[INFO] Check dico ./dico/dico_4.txt = 7.3149s.
[0m[33m[INFO] Find user = 7.2126s.
[0m[33m[INFO] User transition = 0.0070s.
[0m[33m[INFO] Check user mario = 14.5345s.
[0m[33m[INFO] Check dico ./dico/dico_4.txt = 7.3147s.
[0m[33m[INFO] Check dico ./dico/dico_3.txt = 7.3032s.
[0m[33m[INFO] Check user fabien = 14.6179s.
[0m[33m[INFO] Find user = 0.0871s.
[0m[33m[INFO] User transition = 0.0025s.
[0m[33m[INFO] Check user marc = 0.0896s.
[0m[32m[OK] All users checked in 44.7283s.
[0m