[33m[INFO] Check dico ./dico/dico_4.txt = 3.1333s.
[0m[33m[INFO] Find user = 0.8726s.
[0m[33m[INFO] User transition = 0.0073s.
[0m[33m[INFO] Check user ludovic = 4.0134s.
[0m[33m[INFO] Find user = 1.6566s.
[0m[33m[INFO] User transition = 0.0082s.
[0m[33m[INFO] Check user ludo = 1.6648s.
[0m[33m[INFO] Check dico ./dico/dico_4.txt = 3.1162s.
[0m[33m[INFO] Find user = 1.6325s.
[0m[33m[INFO] User transition = 0.0080s.
[0m[33m[INFO] Check user mario = 4.7568s.
[0m[33m[INFO] Check dico ./dico/dico_4.txt = 3.1159s.
[0m[33m[INFO] Check dico ./dico/dico_3.txt = 3.1157s.
[0m[33m[INFO] Check user fabien = 6.2317s.
[0m[33m[INFO] Find user = 0.0872s.
[0m[33m[INFO] User transition = 0.0050s.
[0m[33m[INFO] Check user marc = 0.0922s.
[0m[32m[OK] All users checked in 16.7589s.
[0m