[33m[INFO] Check dico ./dico/dico_4.txt = 2.4231s.
[0m[33m[INFO] Find user = 0.9039s.
[0m[33m[INFO] User transition = 0.0085s.
[0m[33m[INFO] Check user ludovic = 3.3357s.
[0m[33m[INFO] Find user = 2.3774s.
[0m[33m[INFO] User transition = 0.0037s.
[0m[33m[INFO] Check user ludo = 2.3811s.
[0m[33m[INFO] Check dico ./dico/dico_4.txt = 2.3963s.
[0m[33m[INFO] Find user = 2.3166s.
[0m[33m[INFO] User transition = 0.0079s.
[0m[33m[INFO] Check user mario = 4.7208s.
[0m[33m[INFO] Check dico ./dico/dico_4.txt = 2.4139s.
[0m[33m[INFO] Check dico ./dico/dico_3.txt = 2.4142s.
[0m[33m[INFO] Check user fabien = 4.8282s.
[0m[33m[INFO] Find user = 0.0865s.
[0m[33m[INFO] User transition = 0.0074s.
[0m[33m[INFO] Check user marc = 0.0940s.
[0m[32m[OK] All users checked in 15.3599s.
[0m