[33m[INFO] Check dico ./dico/dico_4.txt = 7.6354s.
[0m[33m[INFO] Find user = 0.4739s.
[0m[33m[INFO] User transition = 0.0010s.
[0m[33m[INFO] Check user ludovic = 8.1104s.
[0m[33m[INFO] Find user = 7.6057s.
[0m[33m[INFO] User transition = 0.0036s.
[0m[33m[INFO] Check user ludo = 7.6093s.
[0m[33m[INFO] Check dico ./dico/dico_4.txt = 7.6400s.
[0m[33m[INFO] Find user = 7.5799s.
[0m[33m[INFO] User transition = 0.0041s.
[0m[33m[INFO] Check user mario = 15.2240s.
[0m[33m[INFO] Check dico ./dico/dico_4.txt = 7.7136s.
[0m[33m[INFO] Check dico ./dico/dico_3.txt = 7.6387s.
[0m[33m[INFO] Check user fabien = 15.3523s.
[0m[33m[INFO] Find user = 0.0452s.
[0m[33m[INFO] User transition = 0.0018s.
[0m[33m[INFO] Check user marc = 0.0471s.
[0m[32m[OK] All users checked in 46.3431s.
[0m