[33m[INFO] Check dico ./dico/dico_4.txt = 3.6769s.
[0m[33m[INFO] Find user = 0.8721s.
[0m[33m[INFO] User transition = 0.0083s.
[0m[33m[INFO] Check user ludovic = 4.5574s.
[0m[33m[INFO] Find user = 3.6529s.
[0m[33m[INFO] User transition = 0.0003s.
[0m[33m[INFO] Check user ludo = 3.6532s.
[0m[33m[INFO] Check dico ./dico/dico_4.txt = 3.7048s.
[0m[33m[INFO] Find user = 3.6006s.
[0m[33m[INFO] User transition = 0.0050s.
[0m[33m[INFO] Check user mario = 7.3105s.
[0m[33m[INFO] Check dico ./dico/dico_4.txt = 3.6712s.
[0m[33m[INFO] Check dico ./dico/dico_3.txt = 3.7292s.
[0m[33m[INFO] Check user fabien = 7.4005s.
[0m[33m[INFO] Find user = 0.0864s.
[0m[33m[INFO] User transition = 0.0064s.
[0m[33m[INFO] Check user marc = 0.0929s.
[0m[32m[OK] All users checked in 23.0145s.
[0m