[33m[INFO] Check dico ./dico/dico_4.txt = 3.1329s.
[0m[33m[INFO] Find user = 0.9096s.
[0m[33m[INFO] User transition = 0.0082s.
[0m[33m[INFO] Check user ludovic = 4.0508s.
[0m[33m[INFO] Find user = 1.6557s.
[0m[33m[INFO] User transition = 0.0079s.
[0m[33m[INFO] Check user ludo = 1.6636s.
[0m[33m[INFO] Check dico ./dico/dico_4.txt = 3.1128s.
[0m[33m[INFO] Find user = 1.6310s.
[0m[33m[INFO] User transition = 0.0082s.
[0m[33m[INFO] Check user mario = 4.7521s.
[0m[33m[INFO] Check dico ./dico/dico_4.txt = 3.1245s.
[0m[33m[INFO] Check dico ./dico/dico_3.txt = 3.1140s.
[0m[33m[INFO] Check user fabien = 6.2385s.
[0m[33m[INFO] Find user = 0.0864s.
[0m[33m[INFO] User transition = 0.0051s.
[0m[33m[INFO] Check user marc = 0.0916s.
[0m[32m[OK] All users checked in 16.7966s.
[0m