[33m[INFO] Check dico ./dico/dico_4.txt = 7.3045s.
[0m[33m[INFO] Find user = 0.9094s.
[0m[33m[INFO] User transition = 0.0076s.
[0m[33m[INFO] Check user ludovic = 8.2215s.
[0m[33m[INFO] Find user = 7.2506s.
[0m[33m[INFO] User transition = 0.0072s.
[0m[33m[INFO] Check user ludo = 7.2578s.
[0m[33m[INFO] Check dico ./dico/dico_4.txt = 7.3041s.
[0m[33m[INFO] Find user = 7.1322s.
[0m[33m[INFO] User transition = 0.0076s.
[0m[33m[INFO] Check user mario = 14.4440s.
[0m[33m[INFO] Check dico ./dico/dico_4.txt = 7.3013s.
[0m[33m[INFO] Check dico ./dico/dico_3.txt = 7.3036s.
[0m[33m[INFO] Check user fabien = 14.6050s.
[0m[33m[INFO] Find user = 0.0863s.
[0m[33m[INFO] User transition = 0.0037s.
[0m[33m[INFO] Check user marc = 0.0900s.
[0m[32m[OK] All users checked in 44.6185s.
[0m