[33m[INFO] Check dico ./dico/dico_4.txt = 3.7452s.
[0m[33m[INFO] Find user = 0.6212s.
[0m[33m[INFO] User transition = 0.0076s.
[0m[33m[INFO] Check user ludovic = 4.3741s.
[0m[33m[INFO] Find user = 3.6825s.
[0m[33m[INFO] User transition = 0.0003s.
[0m[33m[INFO] Check user ludo = 3.6828s.
[0m[33m[INFO] Check dico ./dico/dico_4.txt = 3.7155s.
[0m[33m[INFO] Find user = 3.5724s.
[0m[33m[INFO] User transition = 0.0070s.
[0m[33m[INFO] Check user mario = 7.2950s.
[0m[33m[INFO] Check dico ./dico/dico_4.txt = 3.7330s.
[0m[33m[INFO] Check dico ./dico/dico_3.txt = 3.7330s.
[0m[33m[INFO] Check user fabien = 7.4661s.
[0m[33m[INFO] Find user = 0.0873s.
[0m[33m[INFO] User transition = 0.0049s.
[0m[33m[INFO] Check user marc = 0.0922s.
[0m[32m[OK] All users checked in 22.9103s.
[0m