[33m[INFO] Check dico ./dico/dico_4.txt = 2.3886s.
[0m[33m[INFO] Find user = 0.8450s.
[0m[33m[INFO] User transition = 0.0108s.
[0m[33m[INFO] Check user ludovic = 3.2448s.
[0m[33m[INFO] Find user = 2.3802s.
[0m[33m[INFO] User transition = 0.0080s.
[0m[33m[INFO] Check user ludo = 2.3884s.
[0m[33m[INFO] Check dico ./dico/dico_4.txt = 2.4136s.
[0m[33m[INFO] Find user = 2.3200s.
[0m[33m[INFO] User transition = 0.0082s.
[0m[33m[INFO] Check user mario = 4.7422s.
[0m[33m[INFO] Check dico ./dico/dico_4.txt = 2.4141s.
[0m[33m[INFO] Check dico ./dico/dico_3.txt = 2.4085s.
[0m[33m[INFO] Check user fabien = 4.8229s.
[0m[33m[INFO] Find user = 0.0865s.
[0m[33m[INFO] User transition = 0.0054s.
[0m[33m[INFO] Check user marc = 0.0921s.
[0m[32m[OK] All users checked in 15.2909s.
[0m