[33m[INFO] Check dico ./dico/dico_4.txt = 7.3200s.
[0m[33m[INFO] Find user = 0.9090s.
[0m[33m[INFO] User transition = 0.0077s.
[0m[33m[INFO] Check user ludovic = 8.2368s.
[0m[33m[INFO] Find user = 7.2332s.
[0m[33m[INFO] User transition = 0.0079s.
[0m[33m[INFO] Check user ludo = 7.2411s.
[0m[33m[INFO] Check dico ./dico/dico_4.txt = 7.3223s.
[0m[33m[INFO] Find user = 7.2120s.
[0m[33m[INFO] User transition = 0.0074s.
[0m[33m[INFO] Check user mario = 14.5417s.
[0m[33m[INFO] Check dico ./dico/dico_4.txt = 7.3339s.
[0m[33m[INFO] Check dico ./dico/dico_3.txt = 7.3270s.
[0m[33m[INFO] Check user fabien = 14.6609s.
[0m[33m[INFO] Find user = 0.0871s.
[0m[33m[INFO] User transition = 0.0057s.
[0m[33m[INFO] Check user marc = 0.0928s.
[0m[32m[OK] All users checked in 44.7734s.
[0m