[33m[INFO] Check dico ./dico/dico_4.txt = 2.9048s.
[0m[33m[INFO] Find user = 0.8646s.
[0m[33m[INFO] User transition = 0.0077s.
[0m[33m[INFO] Check user ludovic = 3.7772s.
[0m[33m[INFO] Find user = 1.5049s.
[0m[33m[INFO] User transition = 0.0081s.
[0m[33m[INFO] Check user ludo = 1.5130s.
[0m[33m[INFO] Check dico ./dico/dico_4.txt = 2.8975s.
[0m[33m[INFO] Find user = 1.4801s.
[0m[33m[INFO] User transition = 0.0081s.
[0m[33m[INFO] Check user mario = 4.3857s.
[0m[33m[INFO] Check dico ./dico/dico_4.txt = 2.8975s.
[0m[33m[INFO] Check dico ./dico/dico_3.txt = 2.9519s.
[0m[33m[INFO] Check user fabien = 5.8494s.
[0m[33m[INFO] Find user = 0.0864s.
[0m[33m[INFO] User transition = 0.0075s.
[0m[33m[INFO] Check user marc = 0.0939s.
[0m[32m[OK] All users checked in 15.6193s.
[0m