[33m[INFO] Check dico ./dico/dico_4.txt = 5.5439s.
[0m[33m[INFO] Find user = 0.9096s.
[0m[33m[INFO] User transition = 0.0073s.
[0m[33m[INFO] Check user ludovic = 6.4609s.
[0m[33m[INFO] Find user = 2.9026s.
[0m[33m[INFO] User transition = 0.0071s.
[0m[33m[INFO] Check user ludo = 2.9098s.
[0m[33m[INFO] Check dico ./dico/dico_4.txt = 5.5277s.
[0m[33m[INFO] Find user = 2.8751s.
[0m[33m[INFO] User transition = 0.0077s.
[0m[33m[INFO] Check user mario = 8.4104s.
[0m[33m[INFO] Check dico ./dico/dico_4.txt = 5.5377s.
[0m[33m[INFO] Check dico ./dico/dico_3.txt = 5.5457s.
[0m[33m[INFO] Check user fabien = 11.0834s.
[0m[33m[INFO] Find user = 0.0454s.
[0m[33m[INFO] User transition = 0.0048s.
[0m[33m[INFO] Check user marc = 0.0502s.
[0m[32m[OK] All users checked in 28.9148s.
[0m