[33m[INFO] Check dico ./dico/dico_4.txt = 2.9096s.
[0m[33m[INFO] Find user = 0.9092s.
[0m[33m[INFO] User transition = 0.0083s.
[0m[33m[INFO] Check user ludovic = 3.8271s.
[0m[33m[INFO] Find user = 1.5068s.
[0m[33m[INFO] User transition = 0.0085s.
[0m[33m[INFO] Check user ludo = 1.5153s.
[0m[33m[INFO] Check dico ./dico/dico_4.txt = 2.8943s.
[0m[33m[INFO] Find user = 1.4809s.
[0m[33m[INFO] User transition = 0.0078s.
[0m[33m[INFO] Check user mario = 4.3831s.
[0m[33m[INFO] Check dico ./dico/dico_4.txt = 2.9098s.
[0m[33m[INFO] Check dico ./dico/dico_3.txt = 2.8907s.
[0m[33m[INFO] Check user fabien = 5.8005s.
[0m[33m[INFO] Find user = 0.0872s.
[0m[33m[INFO] User transition = 0.0044s.
[0m[33m[INFO] Check user marc = 0.0917s.
[0m[32m[OK] All users checked in 15.6177s.
[0m