[33m[INFO] Check dico ./dico/dico_4.txt = 7.3241s.
[0m[33m[INFO] Find user = 0.6760s.
[0m[33m[INFO] User transition = 0.0078s.
[0m[33m[INFO] Check user ludovic = 8.0080s.
[0m[33m[INFO] Find user = 7.2540s.
[0m[33m[INFO] User transition = 0.0066s.
[0m[33m[INFO] Check user ludo = 7.2606s.
[0m[33m[INFO] Check dico ./dico/dico_4.txt = 7.3076s.
[0m[33m[INFO] Find user = 7.2045s.
[0m[33m[INFO] User transition = 0.0076s.
[0m[33m[INFO] Check user mario = 14.5197s.
[0m[33m[INFO] Check dico ./dico/dico_4.txt = 7.3498s.
[0m[33m[INFO] Check dico ./dico/dico_3.txt = 7.3106s.
[0m[33m[INFO] Check user fabien = 14.6604s.
[0m[33m[INFO] Find user = 0.0865s.
[0m[33m[INFO] User transition = 0.0032s.
[0m[33m[INFO] Check user marc = 0.0897s.
[0m[32m[OK] All users checked in 44.5383s.
[0m