[33m[INFO] Check dico ./dico/dico_4.txt = 3.5390s.
[0m[33m[INFO] Find user = 0.8723s.
[0m[33m[INFO] User transition = 0.0084s.
[0m[33m[INFO] Check user ludovic = 4.4198s.
[0m[33m[INFO] Find user = 1.8031s.
[0m[33m[INFO] User transition = 0.0079s.
[0m[33m[INFO] Check user ludo = 1.8110s.
[0m[33m[INFO] Check dico ./dico/dico_4.txt = 3.5181s.
[0m[33m[INFO] Find user = 1.7795s.
[0m[33m[INFO] User transition = 0.0076s.
[0m[33m[INFO] Check user mario = 5.3053s.
[0m[33m[INFO] Check dico ./dico/dico_4.txt = 3.5750s.
[0m[33m[INFO] Check dico ./dico/dico_3.txt = 3.5203s.
[0m[33m[INFO] Check user fabien = 7.0953s.
[0m[33m[INFO] Find user = 0.0871s.
[0m[33m[INFO] User transition = 0.0043s.
[0m[33m[INFO] Check user marc = 0.0914s.
[0m[32m[OK] All users checked in 18.7229s.
[0m