[33m[INFO] Check dico ./dico/dico_4.txt = 2.8894s.
[0m[33m[INFO] Find user = 0.7937s.
[0m[33m[INFO] User transition = 0.0079s.
[0m[33m[INFO] Check user ludovic = 3.6911s.
[0m[33m[INFO] Find user = 1.5046s.
[0m[33m[INFO] User transition = 0.0082s.
[0m[33m[INFO] Check user ludo = 1.5129s.
[0m[33m[INFO] Check dico ./dico/dico_4.txt = 2.8980s.
[0m[33m[INFO] Find user = 1.4929s.
[0m[33m[INFO] User transition = 0.0080s.
[0m[33m[INFO] Check user mario = 4.3989s.
[0m[33m[INFO] Check dico ./dico/dico_4.txt = 2.8978s.
[0m[33m[INFO] Check dico ./dico/dico_3.txt = 2.8930s.
[0m[33m[INFO] Check user fabien = 5.7908s.
[0m[33m[INFO] Find user = 0.0529s.
[0m[33m[INFO] User transition = 0.0069s.
[0m[33m[INFO] Check user marc = 0.0599s.
[0m[32m[OK] All users checked in 15.4536s.
[0m