1;2;19,904
2;2;8,610
3;2;20,179
4;2;19,833
5;2;19,824
6;2;19,813
7;2;10,327
8;2;19,788
9;2;19,686
10;2;19,825
11;2;19,817
12;2;19,669
13;2;19,681
14;2;19,905
15;2;8,614
16;2;20,132
17;2;19,809
18;2;19,825
19;2;19,956
20;2;19,908
1;3;10,007
2;3;9,928
3;3;10,130
4;3;10,289
5;3;10,134
6;3;10,126
7;3;10,137
8;3;9,024
9;3;10,124
10;3;10,124
11;3;10,134
12;3;7,457
13;3;10,134
14;3;10,036
15;3;10,126
16;3;6,823
17;3;10,129
18;3;9,841
19;3;10,130
20;3;10,134
1;4;8,849
2;4;6,823
3;4;6,871
4;4;6,767
5;4;4,189
6;4;6,781
7;4;7,073
8;4;5,584
9;4;6,765
10;4;6,186
11;4;6,762
12;4;6,762
13;4;6,816
14;4;6,764
15;4;6,763
16;4;6,869
17;4;6,758
18;4;6,803
19;4;6,625
20;4;6,762
1;5;3,976
2;5;5,093
3;5;5,084
4;5;5,096
5;5;5,077
6;5;5,079
7;5;5,081
8;5;5,158
9;5;5,273
10;5;5,076
11;5;5,159
12;5;5,160
13;5;5,068
14;5;5,678
15;5;4,801
16;5;5,157
17;5;3,112
18;5;5,157
19;5;5,076
20;5;3,533
1;6;4,234
2;6;4,236
3;6;4,243
4;6;3,425
5;6;4,238
6;6;4,234
7;6;3,106
8;6;4,235
9;6;4,239
10;6;3,881
11;6;4,236
12;6;4,270
13;6;4,274
14;6;4,314
15;6;4,236
16;6;4,230
17;6;4,247
18;6;4,238
19;6;4,240
20;6;4,233
1;7;3,446
2;7;3,402
3;7;3,444
4;7;3,539
5;7;3,404
6;7;3,425
7;7;3,747
8;7;3,458
9;7;3,451
10;7;3,412
11;7;3,432
12;7;3,449
13;7;3,423
14;7;3,424
15;7;3,416
16;7;3,389
17;7;3,435
18;7;3,411
19;7;3,412
20;7;3,175
1;8;2,175
2;8;2,941
3;8;3,033
4;8;3,010
5;8;1,872
6;8;2,963
7;8;3,009
8;8;1,966
9;8;3,033
10;8;3,029
11;8;2,948
12;8;3,410
13;8;2,971
14;8;2,994
15;8;2,226
16;8;2,932
17;8;2,636
18;8;3,031
19;8;3,056
20;8;2,952
1;9;2,038
2;9;2,675
3;9;2,968
4;9;2,667
5;9;2,605
6;9;2,267
7;9;2,640
8;9;2,656
9;9;2,646
10;9;2,933
11;9;2,594
12;9;2,993
13;9;2,132
14;9;2,634
15;9;2,516
16;9;3,233
17;9;2,647
18;9;2,679
19;9;2,666
20;9;2,592
1;10;2,585
2;10;1,670
3;10;1,614
4;10;2,550
5;10;1,857
6;10;2,611
7;10;2,587
8;10;1,603
9;10;2,635
10;10;2,551
11;10;1,721
12;10;2,535
13;10;1,913
14;10;2,548
15;10;1,843
16;10;2,636
17;10;1,758
18;10;1,785
19;10;1,802
20;10;2,566
1;11;2,215
2;11;1,705
3;11;1,704
4;11;1,678
5;11;1,668
6;11;1,657
7;11;1,617
8;11;2,324
9;11;2,317
10;11;2,307
11;11;1,692
12;11;1,827
13;11;2,185
14;11;2,300
15;11;2,284
16;11;1,564
17;11;2,283
18;11;2,312
19;11;2,010
20;11;1,845
1;12;2,269
2;12;2,157
3;12;2,266
4;12;1,545
5;12;1,589
6;12;1,545
7;12;2,207
8;12;1,340
9;12;1,595
10;12;1,561
11;12;1,410
12;12;2,242
13;12;2,302
14;12;2,284
15;12;1,553
16;12;1,630
17;12;1,359
18;12;2,231
19;12;1,605
20;12;1,611
1;13;2,128
2;13;1,960
3;13;2,134
4;13;1,385
5;13;1,569
6;13;2,236
7;13;2,169
8;13;2,189
9;13;2,236
10;13;2,143
11;13;2,154
12;13;1,363
13;13;1,624
14;13;1,600
15;13;1,980
16;13;1,566
17;13;1,563
18;13;2,163
19;13;1,403
20;13;2,136
1;14;1,570
2;14;2,005
3;14;1,383
4;14;2,027
5;14;1,521
6;14;1,465
7;14;1,956
8;14;2,123
9;14;1,383
10;14;1,967
11;14;1,332
12;14;1,414
13;14;1,555
14;14;2,000
15;14;1,990
16;14;1,329
17;14;2,021
18;14;1,561
19;14;1,996
20;14;1,549
1;15;1,295
2;15;1,797
3;15;1,335
4;15;1,648
5;15;1,313
6;15;1,309
7;15;1,605
8;15;1,985
9;15;1,552
10;15;1,619
11;15;1,339
12;15;1,648
13;15;2,000
14;15;1,791
15;15;1,479
16;15;1,324
17;15;1,637
18;15;1,492
19;15;1,454
20;15;1,986
1;16;1,686
2;16;1,505
3;16;1,505
4;16;1,763
5;16;1,989
6;16;1,485
7;16;1,444
8;16;1,605
9;16;1,371
10;16;1,541
11;16;1,605
12;16;1,381
13;16;1,555
14;16;1,612
15;16;1,425
16;16;1,739
17;16;1,419
18;16;1,775
19;16;1,965
20;16;1,392
1;17;1,508
2;17;1,634
3;17;1,343
4;17;1,473
5;17;1,239
6;17;1,320
7;17;1,485
8;17;1,468
9;17;1,636
10;17;1,663
11;17;1,346
12;17;1,247
13;17;1,586
14;17;1,423
15;17;1,329
16;17;1,400
17;17;1,434
18;17;1,401
19;17;1,277
20;17;1,297
1;18;1,680
2;18;1,358
3;18;1,235
4;18;1,240
5;18;1,437
6;18;1,678
7;18;1,338
8;18;1,426
9;18;1,477
10;18;1,327
11;18;1,340
12;18;1,373
13;18;1,347
14;18;1,342
15;18;1,405
16;18;1,222
17;18;1,356
18;18;1,557
19;18;1,540
20;18;1,387
1;19;1,345
2;19;1,340
3;19;1,339
4;19;1,251
5;19;1,283
6;19;1,281
7;19;1,344
8;19;1,345
9;19;1,204
10;19;1,347
11;19;1,259
12;19;1,339
13;19;1,349
14;19;1,351
15;19;1,353
16;19;1,266
17;19;1,342
18;19;1,252
19;19;1,347
20;19;1,254
1;20;1,332
2;20;1,250
3;20;1,340
4;20;1,344
5;20;1,374
6;20;1,342
7;20;1,266
8;20;1,275
9;20;1,359
10;20;1,263
11;20;1,276
12;20;1,366
13;20;1,334
14;20;1,342
15;20;1,346
16;20;1,248
17;20;1,347
18;20;1,319
19;20;1,342
20;20;1,298
1;21;1,332
2;21;1,322
3;21;1,306
4;21;1,360
5;21;1,365
6;21;1,343
7;21;1,348
8;21;1,348
9;21;1,380
10;21;1,336
11;21;1,370
12;21;1,328
13;21;1,340
14;21;1,317
15;21;1,341
16;21;1,360
17;21;1,365
18;21;1,312
19;21;1,358
20;21;1,373
1;22;1,331
2;22;1,336
3;22;1,303
4;22;1,387
5;22;1,352
6;22;1,336
7;22;1,355
8;22;1,353
9;22;1,324
10;22;1,350
11;22;1,337
12;22;1,343
13;22;1,368
14;22;1,344
15;22;1,342
16;22;1,387
17;22;1,361
18;22;1,398
19;22;1,386
20;22;1,336
1;23;1,344
2;23;1,361
3;23;1,342
4;23;1,368
5;23;1,373
6;23;1,394
7;23;1,364
8;23;1,340
9;23;1,358
10;23;1,372
11;23;1,335
12;23;1,387
13;23;1,362
14;23;1,338
15;23;1,365
16;23;1,340
17;23;1,394
18;23;1,374
19;23;1,365
20;23;1,363
1;24;1,383
2;24;1,392
3;24;1,423
4;24;1,394
5;24;1,406
6;24;1,388
7;24;1,418
8;24;1,365
9;24;1,397
10;24;1,379
11;24;1,356
12;24;1,375
13;24;1,345
14;24;1,374
15;24;1,381
16;24;1,401
17;24;1,356
18;24;1,369
19;24;1,381
20;24;1,379
1;25;1,462
2;25;1,352
3;25;1,394
4;25;1,395
5;25;1,510
6;25;1,489
7;25;1,367
8;25;1,364
9;25;1,514
10;25;1,498
11;25;1,371
12;25;1,528
13;25;1,401
14;25;1,348
15;25;1,573
16;25;1,358
17;25;1,603
18;25;1,351
19;25;1,502
20;25;1,379
1;26;1,501
2;26;1,370
3;26;1,366
4;26;1,555
5;26;1,442
6;26;1,524
7;26;1,395
8;26;1,401
9;26;1,370
10;26;1,389
11;26;1,515
12;26;1,393
13;26;1,413
14;26;1,636
15;26;1,423
16;26;1,376
17;26;1,376
18;26;1,409
19;26;1,449
20;26;1,379
1;27;1,527
2;27;1,806
3;27;1,543
4;27;1,517
5;27;1,586
6;27;1,376
7;27;1,623
8;27;1,605
9;27;1,499
10;27;1,679
11;27;1,511
12;27;1,367
13;27;1,427
14;27;1,640
15;27;1,425
16;27;1,381
17;27;1,358
18;27;1,646
19;27;1,441
20;27;1,674
1;28;1,383
2;28;1,458
3;28;1,479
4;28;1,508
5;28;1,476
6;28;1,441
7;28;1,564
8;28;1,385
9;28;1,527
10;28;1,393
11;28;1,589
12;28;1,657
13;28;1,396
14;28;1,367
15;28;1,524
16;28;1,585
17;28;1,669
18;28;1,452
19;28;1,395
20;28;1,601
1;29;1,376
2;29;1,362
3;29;1,461
4;29;1,553
5;29;1,523
6;29;1,532
7;29;1,372
8;29;1,483
9;29;1,707
10;29;1,500
11;29;1,412
12;29;1,577
13;29;1,580
14;29;1,605
15;29;1,545
16;29;1,465
17;29;1,567
18;29;1,754
19;29;1,717
20;29;1,456
1;30;1,525
2;30;1,453
3;30;1,200
4;30;1,254
5;30;1,490
6;30;1,408
7;30;1,382
8;30;1,734
9;30;1,773
10;30;1,500
11;30;1,554
12;30;1,460
13;30;1,237
14;30;1,626
15;30;1,512
16;30;1,484
17;30;1,448
18;30;1,529
19;30;1,554
20;30;1,725
